Error: memory error: out of bound pointer
File: ssl/t1_enc.c
Line: 619
assembly.ll line: 680899
State: 1
Stack: 
	#000680899 in tls1_final_finish_mac (=94554126172160, =94554414924736, =15, =94554126172744) at ssl/t1_enc.c:619
	#100826974 in ssl3_take_mac (=94554126172160) at ssl/statem/statem_lib.c:719
	#200825992 in dtls_get_message (=94554126172160, =94554491407848, =94554491408432) at ssl/statem/statem_dtls.c:385
	#300770872 in read_state_machine (=94554126172160) at ssl/statem/statem.c:580
	#400769968 in state_machine (=94554126172160, =1) at ssl/statem/statem.c:437
	#500733713 in ossl_statem_accept (=94554126172160) at ssl/statem/statem.c:265
	#600720910 in SSL_do_handshake (=94554126172160) at ssl/ssl_lib.c:3859
	#700720627 in perform_psk_handshake (=94554126172160, =94554421256192, =94553915068928, =94553915586176, =94553915059200, =94553915549312, =false) at dtls-fuzz.c:1034
	#800723482 in __klee_posix_wrapped_main (=7, =94554491976704) at dtls-fuzz.c:1397
	#900014885 in __user_main (=7, =94554212523392, =94554212523456) at /home/hooman/Repos/klee-augmented/runtime/POSIX/klee_init_env.c:245
	#1000011926 in __uClibc_main (=7, =94554212523392) at libc/misc/internals/__uClibc_main.c:401
	#1100012092 in main (=7, =94554212523392)
Info: 
	address: 28
	next: object at 94553906391040 of size 6320
		MO8886[6320] allocated at global:cipher_aliases
