Error: concretized symbolic size
File: crypto/mem.c
Line: 184
assembly.ll line: 22421
State: 4
Stack: 
	#000022421 in CRYPTO_malloc (, =93937987065760, =68) at crypto/mem.c:184
	#100688336 in dtls1_hm_fragment_new (, =1) at ssl/statem/statem_dtls.c:68
	#200828054 in dtls1_reassemble_fragment (=93937940881408, =93938013051360) at ssl/statem/statem_dtls.c:552
	#300827248 in dtls_get_reassembled_message (=93937940881408, =93938001784464, =93937989407856) at ssl/statem/statem_dtls.c:815
	#400825806 in dtls_get_message (=93937940881408, =93938001783448, =93938001783232) at ssl/statem/statem_dtls.c:343
	#500770872 in read_state_machine (=93937940881408) at ssl/statem/statem.c:580
	#600769968 in state_machine (=93937940881408, =1) at ssl/statem/statem.c:437
	#700733713 in ossl_statem_accept (=93937940881408) at ssl/statem/statem.c:265
	#800720910 in SSL_do_handshake (=93937940881408) at ssl/ssl_lib.c:3859
	#900720627 in perform_psk_handshake (=93937940881408, =93937941741568, =93937412298240, =93937412815488, =93937412288512, =93937412778624, =false) at dtls-fuzz.c:1034
	#1000723482 in __klee_posix_wrapped_main (=8, =93937990696960) at dtls-fuzz.c:1397
	#1100014885 in __user_main (=8, =93937710316544, =93937710316616) at /home/hooman/Repos/klee-augmented/runtime/POSIX/klee_init_env.c:245
	#1200011926 in __uClibc_main (=8, =93937710316544) at libc/misc/internals/__uClibc_main.c:401
	#1300012092 in main (=8, =93937710316544)
Info: 
  size expr: (ZExt w64 (Read w8 2 CKEf1-HandshakeLength0))
  concretization : 111
  unbound example: 223
