Error: ASSERTION FAIL: 0
File: ssl/statem/statem_srvr.c
Line: 1221
assembly.ll line: 824668
State: 71
Stack: 
	#000824668 in ossl_statem_server_process_message (=94204685713408, =94204768347344) at ssl/statem/statem_srvr.c:1221
	#100771047 in read_state_machine (=94204685713408) at ssl/statem/statem.c:637
	#200769968 in state_machine (=94204685713408, =1) at ssl/statem/statem.c:437
	#300733713 in ossl_statem_accept (=94204685713408) at ssl/statem/statem.c:265
	#400720910 in SSL_do_handshake (=94204685713408) at ssl/ssl_lib.c:3859
	#500720627 in perform_psk_handshake (=94204685713408, =94204387991552, =94204158053120, =94204158128896, =94204158043392, =94204158075648, =false) at dtls-fuzz.c:1034
	#600723482 in __klee_posix_wrapped_main (=7, =94204735396736) at dtls-fuzz.c:1397
	#700014885 in __user_main (=7, =94204455418880, =94204455418944) at /home/hooman/Repos/klee-augmented/runtime/POSIX/klee_init_env.c:245
	#800011926 in __uClibc_main (=7, =94204455418880) at libc/misc/internals/__uClibc_main.c:401
	#900012092 in main (=7, =94204455418880)
